operation_date,subject_sid_ek,subject_name,agreement_date,agreement_number,balance_account,account_currency,turn_debit,turn_credit,agreement_id_ek,tb_number,subdivision_code
2021-09-12T00:00:00.000+03:00,115,Найдёнов Андреевич Вячеслав,2021-02-01T00:00:00.000+03:00,99ТКПР11111111111117,201,"",0.0,45622.0,102,2000045,99000200003
2021-09-12T00:00:00.000+03:00,116,Зимородок Анатольевна Ольга,2021-02-08T00:00:00.000+03:00,99ТКПР11111111111116,201,"",0.0,7899.0,103,"",99000200003
2021-09-11T00:00:00.000+03:00,118,Бруша Михайловна Евгения,2020-12-26T00:00:00.000+03:00,99ТКПР11111111111113,201,"",0.0,256.34,105,18,99000200003
2021-09-11T00:00:00.000+03:00,119,Герман Николаевич Дмитрий,2021-01-26T00:00:00.000+03:00,99ТКПР11111111111114,201,"",1345.0,0.0,106,18,99000200003
2021-09-12T00:00:00.000+03:00,120,Кулаков Александрович Кузьма,2021-02-01T00:00:00.000+03:00,99ТКПР11111111111117,201,"",789.5,5670.0,107,18,99000200003
2021-09-13T00:00:00.000+03:00,122,Карпинский Арнольдович Геннадий,2021-02-01T00:00:00.000+03:00,99ТКПР11111111111110,201,"","",35.0,109,18,99000200003
2021-09-11T00:00:00.000+03:00,123,Березин Тимофеевич Антон,2020-12-26T00:00:00.000+03:00,99ТКПР11111111111113,201,"",601.0,"",110,18,99000200003
2021-09-13T00:00:00.000+03:00,127,"",2021-02-01T00:00:00.000+03:00,99ТКПР11111111111110,201,"",0.0,1123.02,114,18,99000200003
2021-09-11T00:00:00.000+03:00,128,"",2020-12-26T00:00:00.000+03:00,99ТКПР11111111111113,201,"",0.6,0.03,115,18,99000200003
2021-09-11T00:00:00.000+03:00,129,"",2020-11-19T00:00:00.000+03:00,99ТКПР11111111111110,201,"",0.0,77111.03,116,18,99000200003
